<svg xmlns="http://www.w3.org/2000/svg" width="18.692" height="32" viewBox="0 0 18.692 32">
  <path id="facebook" d="M19.363.231V5.308h-3.4A3.435,3.435,0,0,0,13.456,6a2.94,2.94,0,0,0-.649,2.077v3.634h6.339L18.3,17.4H12.808V32H6.188V17.4H.671V11.71H6.188V7.519a6.985,6.985,0,0,1,2.25-5.548A8.763,8.763,0,0,1,14.43,0,40.169,40.169,0,0,1,19.363.231Z" transform="translate(-0.671)" fill="#c4c4c4"/>
</svg>
